email,_website,_store,confirmation,created_at,created_in,disable_auto_group_change,dob,failures_num,firstname,first_failure,gender,group_id,lastname,lock_expires,middlename,password_hash,prefix,rp_token,rp_token_created_at,store_id,suffix,taxvat,updated_at,website_id,password
karen@gmail.com,base,default,,"2019-06-05 21:11:47","Default Store View",0,,0,karen,,,1,grimaldo,,,080fa24b4189ab0d3e3af8e1814d6ed49da9f1968a4d908fd7c9822aca214ae8:QpqMmMn4sZaSLhydC5C0CkrNler93Xqr:1,,p38GCQBiGT7ZjoJLY19OV87f2Zho9cz7,"2019-06-05 21:11:48",1,,,"2019-06-06 00:53:33",1,
beto.crt@gmail.com,base,default,,"2019-06-09 19:08:29","Default Store View",0,,0,Humberto,,,1,Cortina,,,acc9aaa596061202f425733836d8da981bdc7c1e15e42413f524ad18e7e5160d:DjMw93RRC0mqMXEgLevx7bmTGCL0eP6Y:1,,YfoFQGXKNh4911EdQ5CZ4Sk65TpGgL5J,"2019-06-09 19:08:29",1,,,"2019-06-10 17:17:38",1,
jccantoral@itonline.com.mx,base,default,,"2019-06-20 01:39:25","Default Store View",0,,0,"JUAN CARLOS",,,1,"CANTORAL SILVA",,,6bc0d9ca94df33ae72ee5ce133c1e178a072e06cb77af13e6da4857c49d0e6a2:D4NQD7ujkXtarBrc7QdQjgVSuJVwjUKm:1,,jDuQVisBDrQbTMuceOBDCql5NLB5RubM,"2019-06-20 01:39:25",1,,,"2019-06-20 01:41:07",1,
jccantoral@hotmail.com,base,default,,"2019-06-20 01:53:43","Default Store View",0,,0,"Information Technology Online, S.A. de C.V.",,,1,JCCS,,,ff975a694ef429482d3831a06039987d0190250bf7b17db6887b667e5e8212a3:BBGA8QkED2vULgSwhqPmZ0zirctJjLF1:1,,xMSwO5FTZ0qxOmWj8ygDKgZP3l8jhM33,"2019-06-20 01:53:43",1,,,"2019-06-20 01:57:51",1,
gescalera@itonline.com.mx,base,default,,"2019-06-20 02:04:34","Default Store View",0,,0,Gabriel,,,1,"Escalera Amaro",,,781c09061ee71f926348d17bd845307a18d1ea3123726d02a9109815042c9ab9:yA8UxvF270GCjjPQ5en6X2TNlVLjiDi1:1,,wWkFa2Qo56bqbdMVoVM4JR3BmLX3Ztw7,"2019-06-20 02:04:34",1,,,"2019-06-20 02:05:18",1,
pprr_1234@gmail.com,base,default,,"2019-06-20 02:09:31","Default Store View",0,,0,"Pedro Pablo",,,1,"Ramírez Ríos del Campo",,,251747452cfbe2d5cf619dc72e58272e046f3821c9a35f9f119c1d6b30b0aa48:3ZWzobPE2hEeL7XIyseI1qyA0mKtzpeT:1,,8CWcVFeZ8F6BijZW8mt3VlTXChZYvg9k,"2019-06-20 02:09:31",1,,,"2019-06-20 02:25:33",1,
